<svg width="30" height="30" viewBox="0 0 30 30" fill="none" xmlns="http://www.w3.org/2000/svg">
<rect width="30" height="30" fill="#0590D8"/>
<path d="M28.125 28.125H26.25V23.4375C26.2485 22.1948 25.7542 21.0033 24.8754 20.1246C23.9967 19.2458 22.8052 18.7515 21.5625 18.75V16.875C23.3024 16.877 24.9704 17.569 26.2007 18.7993C27.431 20.0296 28.123 21.6976 28.125 23.4375V28.125Z" fill="black"/>
<path d="M20.625 28.125H18.75V23.4375C18.7485 22.1948 18.2542 21.0033 17.3754 20.1246C16.4967 19.2458 15.3052 18.7515 14.0625 18.75H8.4375C7.19475 18.7515 6.00334 19.2458 5.12458 20.1246C4.24583 21.0033 3.75149 22.1948 3.75 23.4375V28.125H1.875V23.4375C1.87699 21.6976 2.56903 20.0296 3.7993 18.7993C5.02958 17.569 6.69763 16.877 8.4375 16.875H14.0625C15.8024 16.877 17.4704 17.569 18.7007 18.7993C19.931 20.0296 20.623 21.6976 20.625 23.4375V28.125Z" fill="black"/>
<path d="M18.75 1.875V3.75C19.9932 3.75 21.1855 4.24386 22.0646 5.12294C22.9436 6.00201 23.4375 7.1943 23.4375 8.4375C23.4375 9.6807 22.9436 10.873 22.0646 11.7521C21.1855 12.6311 19.9932 13.125 18.75 13.125V15C20.4905 15 22.1597 14.3086 23.3904 13.0779C24.6211 11.8472 25.3125 10.178 25.3125 8.4375C25.3125 6.69702 24.6211 5.02782 23.3904 3.79711C22.1597 2.5664 20.4905 1.875 18.75 1.875V1.875Z" fill="black"/>
<path d="M11.25 3.75C12.1771 3.75 13.0834 4.02492 13.8542 4.53999C14.6251 5.05506 15.2259 5.78714 15.5807 6.64367C15.9355 7.5002 16.0283 8.4427 15.8474 9.35199C15.6666 10.2613 15.2201 11.0965 14.5646 11.7521C13.909 12.4076 13.0738 12.8541 12.1645 13.0349C11.2552 13.2158 10.3127 13.123 9.45618 12.7682C8.59965 12.4134 7.86756 11.8126 7.35249 11.0417C6.83742 10.2709 6.5625 9.3646 6.5625 8.4375C6.5625 7.1943 7.05636 6.00201 7.93544 5.12294C8.81452 4.24386 10.0068 3.75 11.25 3.75V3.75ZM11.25 1.875C9.95206 1.875 8.68327 2.25988 7.60407 2.98098C6.52488 3.70208 5.68374 4.727 5.18704 5.92614C4.69034 7.12528 4.56038 8.44478 4.8136 9.71778C5.06682 10.9908 5.69183 12.1601 6.60961 13.0779C7.5274 13.9957 8.69672 14.6207 9.96972 14.8739C11.2427 15.1271 12.5622 14.9972 13.7614 14.5005C14.9605 14.0038 15.9854 13.1626 16.7065 12.0834C17.4276 11.0042 17.8125 9.73544 17.8125 8.4375C17.8125 6.69702 17.1211 5.02782 15.8904 3.79711C14.6597 2.5664 12.9905 1.875 11.25 1.875V1.875Z" fill="black"/>
</svg>
